{
    "family": "prod-service-discovery",
    "executionRoleArn": "arn:aws:iam::641723491745:role/ecsTaskExecutionRole",
    "taskRoleArn": "arn:aws:iam::641723491745:role/ecsTaskExecutionRole",
    "networkMode": "awsvpc",
    "cpu": "1024",
    "memory": "2048",
    "volumes": [],
    "requiresCompatibilities": [
      "FARGATE"
    ],
    "containerDefinitions": [
      {
        "logConfiguration": {
          "logDriver": "awslogs",
          "options": {
            "awslogs-group": "/ecs/prod-service-discovery",
            "awslogs-region": "eu-central-1",
            "awslogs-stream-prefix": "ecs"
          }
        },
        "entryPoint": [],
        "portMappings": [
          {
            "hostPort": 8080,
            "protocol": "tcp",
            "containerPort": 8080
          }
        ],
        "essential": true,
        "environment": [
          {
            "name": "AWS_DEFAULT_REGION",
            "value": "u-central-1"
          },
          {
            "name": "BUCKET_NAME",
            "value": "stage-payriff-core"
          }
        ],
        "secrets": [

        ],
        "command": [],
        "cpu": 0,
        "mountPoints": [],
        "volumesFrom": [],
        "image": "641723491745.dkr.ecr.eu-central-1.amazonaws.com/prod-service-discovery:REPLACE_IMAGE_HASH",
        "name": "prod-service-discovery"
      }
    ],
    "placementConstraints": []
  }
  