     _      ____    ____            ____    ____     ___   __     __  ___   ____    _____   ____
    / \    |  _ \  |  _ \          |  _ \  |  _ \   / _ \  \ \   / / |_ _| |  _ \  | ____| |  _ \
   / _ \   | | | | | |_) |  _____  | |_) | | |_) | | | | |  \ \ / /   | |  | | | | |  _|   | |_) |
  / ___ \  | |_| | |  __/  |_____| |  __/  |  _ <  | |_| |   \ V /    | |  | |_| | | |___  |  _ <
 /_/   \_\ |____/  |_|             |_|     |_| \_\  \___/     \_/    |___| |____/  |_____| |_| \_\

${application.title} ${application.version}
Powered by Spring Boot ${spring-boot.version}